{
	"PhysCompEnergy":	{
		"mx":	32,
		"my":	4,
		"mz":	16,
		"meshType":	1,
		"time":	0,
		"timeStepSize":	1.000000e-13,
		"u_minus_V":	{
			"fileName":	"./EPSL_POLC_100-ckp/checkpoints/initial_condition/physcomp_energy_u_minus_V.pbvec",
			"dataFormat":	"petsc-binary"
		},
		"Told":	{
			"fileName":	"./EPSL_POLC_100-ckp/checkpoints/initial_condition/physcomp_energy_Told.pbvec",
			"dataFormat":	"petsc-binary"
		},
		"Xold":	{
			"fileName":	"./EPSL_POLC_100-ckp/checkpoints/initial_condition/physcomp_energy_Xold.pbvec",
			"dataFormat":	"petsc-binary"
		}
	}
}
