{
	"pTatinCtx":	{
		"commSize":	1,
		"mx":	32,
		"my":	4,
		"mz":	16,
		"restartFromFile":	false,
		"restartPath":	"",
		"checkpointEvery":	1,
		"checkpointEveryNSteps":	1000,
		"checkpointEveryNCPUMins":	90,
		"useMFStokes":	false,
		"formattedTimestamp":	"2021.02.25_21:06:35",
		"outputPath":	"./EPSL_POLC_100-ckp",
		"coefficientProjectionType":	1,
		"solverStatistics":	false,
		"continuation_m":	1,
		"continuation_M":	1,
		"timeStep":	0,
		"timeStepMax":	2,
		"timeStepSize":	1.000000e-13,
		"timeStepSizeMax":	0.001000,
		"timeStepSizeMin":	0,
		"timeStepSizeAdv":	0,
		"constantTimeStepSize":	0,
		"useConstantTimeStepSize":	false,
		"time":	0,
		"timeMax":	100000000000000005366162204393472,
		"outputFrequency":	1,
		"stokes->gravity_vector":	{
			"ctype":	"double",
			"length":	3,
			"dataFormat":	"ascii",
			"data":	[0, -10, 0],
			"data[ascii]":	[0, -10, 0]
		},
		"stokes->dmv":	{
			"ctype":	"DMDA",
			"dataFormat":	"json-meta",
			"fileName":	"./EPSL_POLC_100-ckp/checkpoints/initial_condition/stokes_v_dmda.json"
		},
		"energy":	{
			"ctype":	"PhysCompEnergy",
			"dataFormat":	"json-meta",
			"fileName":	"./EPSL_POLC_100-ckp/checkpoints/initial_condition/physcomp_energy.json"
		},
		"materialpoint_db":	{
			"ctype":	"DataBucket",
			"dataFormat":	"native",
			"fileName":	"./EPSL_POLC_100-ckp/checkpoints/initial_condition/materialpoint_db.json"
		},
		"material_constants":	{
			"ctype":	"DataBucket",
			"dataFormat":	"native",
			"fileName":	"./EPSL_POLC_100-ckp/checkpoints/initial_condition/materialconstants_db.json"
		},
		"stokes.Xs->Xv":	{
			"ctype":	"Vec",
			"dataFormat":	"petsc-binary",
			"fileName":	"./EPSL_POLC_100-ckp/checkpoints/initial_condition/ptatinstate_stokes_Xv.pbvec"
		},
		"stokes.Xs->Xp":	{
			"ctype":	"Vec",
			"dataFormat":	"petsc-binary",
			"fileName":	"./EPSL_POLC_100-ckp/checkpoints/initial_condition/ptatinstate_stokes_Xp.pbvec"
		},
		"energy.Xt":	{
			"ctype":	"Vec",
			"dataFormat":	"petsc-binary",
			"fileName":	"./EPSL_POLC_100-ckp/checkpoints/initial_condition/ptatinstate_energy_Xt.pbvec"
		}
	}
}
